<svg xmlns="http://www.w3.org/2000/svg" width="27.688" height="28" viewBox="0 0 27.688 28">
  <g id="Group_704" data-name="Group 704" transform="translate(-12.245 -871.5)">
    <path id="Rectangle_2-2" data-name="Rectangle 2-2" d="M944.441,1375.251l-8.291,12.268-4.65-3.151,8.26-12.268Z" transform="translate(-905.509 -499.6)" fill="none" stroke="#5dff00" stroke-linecap="round" stroke-linejoin="round" stroke-width="2"/>
    <path id="Path_4-2" data-name="Path 4-2" d="M923.738,1419.9l3.977,2.692-5.415,3.7Z" transform="translate(-900.058 -530.607)" fill="#3c4dad" stroke="#5dff00" stroke-linecap="round" stroke-linejoin="round" stroke-width="2"/>
    <path id="Path_5" data-name="Path 5" d="M7.78,23H2.513A2.63,2.63,0,0,1,0,20.28V2.72A2.63,2.63,0,0,1,2.513,0H17.487A2.63,2.63,0,0,1,20,2.72V14.128" transform="translate(13.245 898.5) rotate(-90)" fill="none" stroke="#5dff00" stroke-linecap="round" stroke-linejoin="round" stroke-width="2"/>
  </g>
</svg>
